Gradiente Descendente
…
sum(resid(sim_ols)^2)

## [1] 15539.95

Exatamente o mesmo!

Então agora temos uma função geral que pode ser usada para avaliar nossa função objetivo para qualquer combinação de intercepto/inclinação. Podemos então, teoricamente, avaliar infinitas combinações e encontrar o menor valor. Vejamos várias centenas de combinações.

# candidate values
grid <- expand.grid(a = seq(-5, 10, 0.1), b = seq(-5, 5, 0.1)) %>% 
  as_tibble()
grid

## # A tibble: 15,251 × 2
##        a     b
##    <dbl> <dbl>
##  1  -5      -5
##  2  -4.9    -5
##  3  -4.8    -5
##  4  -4.7    -5
##  5  -4.6    -5
##  6  -4.5    -5
##  7  -4.4    -5
##  8  -4.3    -5
##  9  -4.2    -5
## 10  -4.1    -5
## # … with 15,241 more rows

Poderíamos, é claro, sobrepor tudo isso em nossos dados, mas isso seria muito difícil de analisar com 15.251 linhas candidatas. Vamos calcular o EQM para cada candidato.

mse_grid <- grid %>% 
  rowwise(a, b) %>% 
  summarize(mse = mse(a, b), .groups = "drop")

mse_grid

## # A tibble: 15,251 × 3
##        a     b     mse
##    <dbl> <dbl>   <dbl>
##  1  -5      -5 152243.
##  2  -4.9    -5 150290.
##  3  -4.8    -5 148357.
##  4  -4.7    -5 146444.
##  5  -4.6    -5 144551.
##  6  -4.5    -5 142677.
##  7  -4.4    -5 140824.
##  8  -4.3    -5 138991.
##  9  -4.2    -5 137178.
## 10  -4.1    -5 135384.
## # … with 15,241 more rows
…
  tibble(a = pars[1], b = pars[2], mse = mse(a, b, x, y))
}

# initialize
grad <- estimate_gradient(tibble(a = 0, b = 0))

# loop through
for(i in 2:50) {
  grad[i, ] <- estimate_gradient(grad[i - 1, ])
}
grad

## # A tibble: 50 × 3
##        a     b    mse
##    <dbl> <dbl>  <dbl>
##  1 0.989 0.243 32446.
##  2 1.78  0.443 26428.
##  3 2.42  0.607 22552.
##  4 2.93  0.741 20057.
##  5 3.33  0.850 18450.
##  6 3.66  0.940 17415.
##  7 3.92  1.01  16748.
##  8 4.13  1.07  16318.
##  9 4.30  1.12  16042.
## 10 4.43  1.16  15863.
## # … with 40 more rows
…
